Modeling
…
folds <- vfold_cv(train_data, v = 5, strata = Diabetes_binary)

Classification Tree

Recipe

tree_recipe <- recipe(Diabetes_binary ~ BMI + Sex + Age + Income + HeartDiseaseorAttack, 
                      data = train_data) |>
  step_dummy(all_nominal_predictors(), -all_outcomes())

prepared_recipe <- prep(tree_recipe)
baked <- bake(prepared_recipe, new_data = NULL)
baked

# A tibble: 177,575 × 23
     BMI Diabetes_binary Sex_Yes    Age_01  Age_02    Age_03  Age_04    Age_05
   <dbl> <fct>             <dbl>     <dbl>   <dbl>     <dbl>   <dbl>     <dbl>
 1    40 No Diabetes           0  1.48e- 1 -0.223  -2.93e- 1  0.0422  3.31e- 1
 2    28 No Diabetes           0  1.48e- 1 -0.223  -2.93e- 1  0.0422  3.31e- 1
 3    30 No Diabetes           0  1.48e- 1 -0.223  -2.93e- 1  0.0422  3.31e- 1
 4    25 No Diabetes           0  2.96e- 1  0.0447 -2.51e- 1 -0.368  -2.29e- 1
 5    24 No Diabetes           1  7.41e- 2 -0.291  -1.67e- 1  0.245   2.54e- 1
 6    34 No Diabetes           0  2.22e- 1 -0.112  -3.34e- 1 -0.207   1.40e- 1
 7    26 No Diabetes           0 -1.65e-17 -0.313  -2.48e-17  0.322  -6.22e-16
 8    33 No Diabetes           0 -2.22e- 1 -0.112   3.34e- 1 -0.207  -1.40e- 1
 9    33 No Diabetes           0 -7.41e- 2 -0.291   1.67e- 1  0.245  -2.54e- 1
10    28 No Diabetes           1 -2.22e- 1 -0.112   3.34e- 1 -0.207  -1.40e- 1
# ℹ 177,565 more rows
# ℹ 15 more variables: Age_06 <dbl>, Age_07 <dbl>, Age_08 <dbl>, Age_09 <dbl>,
#   Age_10 <dbl>, Age_11 <dbl>, Age_12 <dbl>, Income_1 <dbl>, Income_2 <dbl>,
#   Income_3 <dbl>, Income_4 <dbl>, Income_5 <dbl>, Income_6 <dbl>,
#   Income_7 <dbl>, HeartDiseaseorAttack_Yes <dbl>
…
